<?xml version="1.0" encoding="utf-8"?>
<!-- Generator: Adobe Illustrator 19.2.0, SVG Export Plug-In . SVG Version: 6.00 Build 0)  -->
<svg version="1.1" id="Ebene_1" xmlns="http://www.w3.org/2000/svg" xmlns:xlink="http://www.w3.org/1999/xlink" x="0px" y="0px"
	 viewBox="0 0 365.5 132" style="enable-background:new 0 0 365.5 132;" xml:space="preserve">
<style type="text/css">
	.st0{enable-background:new    ;}
	.st1{fill:#FFFFFF;}
</style>
<title>Logo_long</title>
<g class="st0">
	<path class="st1" d="M33.7,32.3c-0.6,1-1.4,1.9-2.3,2.7c-0.9,0.9-1.9,1.6-3.1,2.2c-1.2,0.6-2.5,1.2-3.9,1.5c-1.4,0.4-3,0.6-4.7,0.6
		c-2.8,0-5.5-0.5-7.9-1.5s-4.5-2.4-6.2-4.1c-1.7-1.8-3.1-3.8-4.1-6.2S0,22.5,0,19.6s0.5-5.5,1.5-7.9s2.4-4.5,4.1-6.2
		c1.8-1.8,3.8-3.1,6.2-4.1s5-1.5,7.8-1.5c1.4,0,2.7,0.1,4.1,0.4C25,0.6,26.3,1,27.4,1.5c1.2,0.5,2.2,1.1,3.2,1.9
		c1,0.7,1.8,1.6,2.4,2.5l-3.2,2.3c-0.4-0.6-0.9-1.2-1.6-1.8s-1.4-1.1-2.3-1.6S24,4,23,3.7s-2.2-0.4-3.4-0.4c-2.4,0-4.6,0.4-6.6,1.3
		c-1.9,0.9-3.6,2.1-4.9,3.6S5.7,11.4,5,13.4s-1.1,4.1-1.1,6.2c0,2.2,0.4,4.3,1.1,6.2c0.7,2,1.8,3.7,3.1,5.2s3,2.7,4.9,3.6
		c1.9,0.9,4.1,1.3,6.5,1.3c2.2,0,4.2-0.4,6.2-1.3c1.9-0.9,3.6-2.3,4.9-4.2L33.7,32.3z"/>
</g>
<g class="st0">
	<path class="st1" d="M52.8,39.4c-2.8,0-5.2-0.5-7-1.5s-3.2-2.2-4.3-3.7s-1.8-3.1-2.2-4.9s-0.6-3.4-0.6-5V0.8h3.8V24
		c0,1.5,0.2,3,0.5,4.4c0.4,1.4,0.9,2.7,1.7,3.8c0.8,1.1,1.8,2,3.2,2.7c1.3,0.7,2.9,1,4.8,1s3.5-0.3,4.8-1s2.4-1.6,3.2-2.7
		c0.8-1.1,1.4-2.4,1.7-3.8c0.4-1.4,0.5-2.9,0.5-4.4V0.8h3.8v23.6c0,1.6-0.2,3.2-0.6,5s-1.1,3.4-2.2,4.9c-1.1,1.5-2.5,2.7-4.3,3.7
		C57.9,38.9,55.6,39.4,52.8,39.4z"/>
</g>
<g class="st0">
	<path class="st1" d="M79.8,38.4H76V0.8h11c1.8,0,3.5,0.2,5.1,0.5C93.7,1.7,95,2.2,96.2,3c1.1,0.8,2,1.8,2.7,3.1s1,2.8,1,4.7
		c0,1.4-0.2,2.6-0.7,3.8c-0.5,1.1-1.2,2.1-2,2.9c-0.8,0.8-1.9,1.5-3,2c-1.2,0.5-2.4,0.8-3.8,1l11,17.9h-4.7L86.3,20.8h-6.4
		L79.8,38.4L79.8,38.4z M79.8,17.6h6.6c3.1,0,5.5-0.6,7.1-1.7c1.7-1.1,2.5-2.8,2.5-5c0-1.2-0.2-2.3-0.7-3.1s-1.1-1.5-1.9-2.1
		c-0.8-0.5-1.8-0.9-3-1.2c-1.2-0.2-2.5-0.4-3.9-0.4h-6.8v13.5H79.8z"/>
</g>
<g class="st0">
	<path class="st1" d="M110.9,35h17.5v3.4h-21.3V0.8h3.8C110.9,0.8,110.9,35,110.9,35z"/>
</g>
<g class="st0">
	<path class="st1" d="M137.4,38.4h-3.8V0.8h3.8V38.4z"/>
</g>
<g class="st0">
	<path class="st1" d="M173.3,32.8h0.1v-32h3.8v37.6h-4.8L150.6,6.1h-0.1v32.3h-3.8V0.8h4.8L173.3,32.8z"/>
</g>
<g class="st0">
	<path class="st1" d="M215.1,7.6c-1.3-1.4-2.9-2.5-4.7-3.2c-1.8-0.8-3.9-1.1-6.2-1.1c-2.4,0-4.6,0.4-6.5,1.3s-3.6,2.1-4.9,3.6
		s-2.4,3.2-3.1,5.2s-1.1,4.1-1.1,6.3s0.4,4.3,1.1,6.3s1.8,3.7,3.1,5.2s3,2.7,4.9,3.6c1.9,0.9,4.1,1.3,6.5,1.3c2.1,0,4.1-0.2,5.8-0.7
		s3.2-1,4.3-1.8V22.1h-8.7v-3.4h12.6v17c-2.1,1.2-4.3,2.2-6.6,2.8c-2.4,0.6-4.8,0.9-7.4,0.9c-2.8,0-5.5-0.5-7.9-1.5
		s-4.5-2.4-6.2-4.1c-1.7-1.8-3.1-3.8-4.1-6.2s-1.5-5-1.5-7.9s0.5-5.5,1.5-7.9s2.4-4.5,4.1-6.2c1.8-1.8,3.8-3.1,6.2-4.1
		s5-1.5,7.8-1.5c3,0,5.6,0.5,7.9,1.3c2.2,0.9,4.1,2.1,5.7,3.7L215.1,7.6z"/>
</g>
<g class="st0">
	<path class="st1" d="M272.8,32.3c-0.6,1-1.4,1.9-2.3,2.7c-0.9,0.9-1.9,1.6-3.1,2.2s-2.5,1.2-3.9,1.5c-1.4,0.4-3,0.6-4.7,0.6
		c-2.8,0-5.5-0.5-7.9-1.5s-4.5-2.4-6.2-4.1c-1.7-1.8-3.1-3.8-4.1-6.2s-1.5-5-1.5-7.9s0.5-5.5,1.5-7.9s2.4-4.5,4.1-6.2
		c1.8-1.8,3.8-3.1,6.2-4.1s5-1.5,7.8-1.5c1.4,0,2.7,0.1,4.1,0.4c1.3,0.3,2.6,0.7,3.7,1.2s2.2,1.1,3.2,1.9c1,0.7,1.8,1.6,2.4,2.5
		l-3.2,2.3c-0.4-0.6-0.9-1.2-1.6-1.8s-1.4-1.1-2.3-1.6s-1.8-0.8-2.9-1.1c-1-0.3-2.2-0.4-3.4-0.4c-2.4,0-4.6,0.4-6.6,1.3
		c-1.9,0.9-3.6,2.1-4.9,3.6s-2.4,3.2-3.1,5.2s-1.1,4.1-1.1,6.2c0,2.2,0.4,4.3,1.1,6.2c0.7,2,1.8,3.7,3.1,5.2s3,2.7,4.9,3.6
		c1.9,0.9,4.1,1.3,6.5,1.3c2.2,0,4.2-0.4,6.2-1.3c1.9-0.9,3.6-2.3,4.9-4.2L272.8,32.3z"/>
</g>
<g class="st0">
	<path class="st1" d="M282.2,35h17.5v3.4h-21.3V0.8h3.8V35z"/>
</g>
<g class="st0">
	<path class="st1" d="M317.3,39.4c-2.8,0-5.2-0.5-7-1.5s-3.2-2.2-4.3-3.7s-1.8-3.1-2.2-4.9c-0.4-1.8-0.6-3.4-0.6-5V0.8h3.8V24
		c0,1.5,0.2,3,0.5,4.4c0.4,1.4,0.9,2.7,1.7,3.8c0.8,1.1,1.8,2,3.2,2.7c1.3,0.7,2.9,1,4.8,1s3.5-0.3,4.8-1s2.4-1.6,3.2-2.7
		c0.8-1.1,1.4-2.4,1.7-3.8c0.4-1.4,0.5-2.9,0.5-4.4V0.8h3.8v23.6c0,1.6-0.2,3.2-0.6,5s-1.1,3.4-2.2,4.9s-2.5,2.7-4.3,3.7
		C322.4,38.9,320.1,39.4,317.3,39.4z"/>
</g>
<g class="st0">
	<path class="st1" d="M340.4,0.8h11.2c1.4,0,2.8,0.2,4.3,0.5s2.8,0.8,3.9,1.5s2.1,1.7,2.8,2.9s1.1,2.8,1.1,4.7c0,2-0.6,3.7-1.8,5.2
		s-2.8,2.4-4.9,2.9v0.1c2.4,0.3,4.5,1.2,6.1,2.8s2.4,3.8,2.4,6.6c0,1.6-0.3,3-1,4.3s-1.6,2.4-2.8,3.3s-2.7,1.6-4.4,2.1
		s-3.7,0.7-5.8,0.7h-11.1L340.4,0.8L340.4,0.8z M344.2,17.3h7.7c0.9,0,1.8-0.1,2.8-0.3c0.9-0.2,1.8-0.6,2.6-1.1s1.4-1.2,1.9-2
		s0.7-1.9,0.7-3.1s-0.2-2.2-0.7-3.1c-0.5-0.8-1.1-1.5-1.9-2s-1.8-0.9-2.9-1.1s-2.3-0.3-3.5-0.3h-6.6L344.2,17.3L344.2,17.3z
		 M344.2,35.1h7.1c1.4,0,2.7-0.1,4-0.4s2.4-0.7,3.3-1.3s1.7-1.3,2.3-2.3c0.6-0.9,0.8-2.1,0.8-3.4c0-2.5-0.8-4.3-2.5-5.5
		s-4.1-1.8-7.1-1.8h-7.8L344.2,35.1L344.2,35.1z"/>
</g>
<g class="st0">
	<path class="st1" d="M8.3,125.5H42v6.5H1V59.8h7.4L8.3,125.5L8.3,125.5z"/>
</g>
<g class="st0">
	<path class="st1" d="M55.3,132.1h-8.1l31.2-72.3h7.1l31,72.3h-8.2l-8-19H62.9L55.3,132.1z M65.9,106.4h31.9L81.9,68L65.9,106.4z"/>
</g>
<g class="st0">
	<path class="st1" d="M148.5,132.1c-5.4,0-9.9-0.9-13.4-2.7c-3.5-1.9-6.2-4.1-8.3-6.9c-2.1-2.8-3.5-5.9-4.2-9.1
		c-0.8-3.3-1.2-6.3-1.2-9.3V59.8h7.4v43.4c0,2.8,0.3,5.7,1,8.3c0.7,2.7,1.8,5.1,3.3,7.2c1.5,2,3.6,3.8,6.1,5.1s5.6,2,9.3,2
		s6.8-0.7,9.3-2s4.5-3,6.1-5.1c1.5-2,2.6-4.5,3.3-7.2s1-5.5,1-8.3V59.8h7.4V104c0,2.9-0.4,6-1.2,9.3s-2.2,6.3-4.2,9.1
		s-4.8,5.1-8.3,6.9C158.4,131.2,153.9,132.1,148.5,132.1z"/>
</g>
<g class="st0">
	<path class="st1" d="M199.7,132.1h-7.4V59.8h43.6v6.5h-36.2v25h33.7v6.5h-33.7V132.1z"/>
</g>
<g class="st0">
	<path class="st1" d="M253.6,125.6h38.7v6.5h-46V59.8h44.8v6.5h-37.5v24.8h35v6.5h-35V125.6z"/>
</g>
<g class="st0">
	<path class="st1" d="M354.5,121.4h0.2V59.8h7.4v72.3h-9.2l-42.1-62.2h-0.2v62.2h-7.4V59.8h9.2L354.5,121.4z"/>
</g>
</svg>
